## Interface: 110005
## Title: EmeraldFramework
## Notes: framework for addons
## Version: 0.1
## Author: WobLight
## SavedVariables: EmeraldFrameworkSettings
Core.lua
UI.lua
Layouts.lua
Blizzlike.lua
Config.lua
